2017,2016,2015,2014,2013,2012,2011,2010,2009,2008,2007,2006,2005,2004,2003,2002,2001,2000,1999,1998,1997,1996,1995,1994,1993,1992,1991,1990,1989,1988,1987,1986,1985,1984,1983,1982,1981,1980,1979,1978,1977,1976,1975,1974,1973,1972,1971,1970,1969,1968,1967
230i Convertible,228i Convertible,228i Convertible,228i Base Model,128i Cabriolet,1 Series M Coupe,1 Series M Coupe,128i Cabriolet,128i Cabriolet,128i Cabriolet,328i Cabriolet Base Model,325Ci Cabriolet,325Ci Cabriolet,325Ci Cabriolet,325Ci Cabriolet,325Ci Cabriolet,325Ci,323Ci,318ti Sport,318i,318i,318i,318Ti Club Sport,318i,318i,318i,318i,325i,325i,325,325,325e,318i,318i,320i,320i,320i,320i,320i,320i,320i,2002,2002,2002,2002,2002,1600,1600,1600,1600,1600
230i Coupe,228i Coupe,228i Coupe,228i M Sport,128i Coupe,128i Cabriolet Base Model,128i Cabriolet Base Model,128i Coupe,128i Coupe,128i Coupe,328i Cabriolet Sport Package,325Ci Coupe,325Ci Coupe,325Ci Coupe,325Ci Coupe,325Ci Coupe,325Ci Convertible,323Ci Convertible,323i,318ic,318ic,318ic,318i,318ic,318is,318ic,318is,325ic,325ic,325i,325e,325es,323i,323i,323i,323i,323i,323i,323i,323i,323i,3.0Si,3.0CSi,2002Tii,2002Tii,2002Tii,2002,2002,2002,,
230i xDrive Convertible,228i xDrive Convertible,228i xDrive Convertible,228i M Sport Brakes,135i Cabriolet,128i Cabriolet M Sport Package,128i Cabriolet M Sport Package,135i Cabriolet,135i Cabriolet,135i Cabriolet,328i Coupe Sport Package,325i Sedan,325i Sedan,325i Sedan,325i Sedan,325i Sedan,325Ci Sport Package,323Ci Convertible Sport Pkg,323i Sport Package,318is,318is,318is,318ic,318is,325i,318is,325i,325is,325is,325ic,325es,525td,325e,325e,528e,528e,528i,528i,528i,530i,530i,530i,3.0Si,3.0CS,3.0CS,2800,2002Tii,2500,2500,,
230i xDrive Coupe,228i xDrive Coupe,228i xDrive Coupe,228i M Sport Staggered Tires,135i Coupe,128i Cabriolet Sport Package,128i Cabriolet Sport Package,135i Coupe,135i Coupe,135i Coupe,328i Sedan Base Model,325xi Sedan,325iT Wagon,325iT Wagon,325iT Wagon,325iT Wagon,325i,323Ci Sport Package,323ic,318ti,318ti,318ti,318is,325i,325ic,325i,325ic,325ix,325ix,325is,325i,528e,525td,528e,533i,633Csi,633Csi,633Csi,633Csi,633Csi,630Csi,,530i,3.0CSi,3.0CSi,3.0CS,2500,2800,2800,,
320i Sedan,320i Sedan,320i Sedan,228i Sport Line,135is Cabriolet,128i Coupe Base Model,128i Coupe Base Model,328i Cabriolet,328i Cabriolet,328i Cabriolet,328i Sedan Sport Package,325xi Wagon,325xi Sedan,325xi Sedan,325xi Sedan,325xi Sedan,325i Sport Package,323i,323is,318ti Sport,318ti Active,318ti Active,318ti,325ic,325is,325ic,325is,525i,525i,325ix,325ic,535i,528e,533i,633Csi,733i,733i,733i,733i,733i,,,,3.0Si,3.0Si,3.0CSi,2800,2800CS,2800CS,,
320i xDrive Sedan,320i xDrive Sedan,320i xDrive Sedan,228i Sport Line Staggered Tire,135is Coupe,128i Coupe M Sport Package,128i Coupe M Sport Package,328i Coupe,328i Coupe,328i Coupe,328i Wagon Base Model,328i Wagon,325xiT Wagon,325xiT Wagon,325xiT Wagon,325xiT Wagon,325i Sport Wagon,323i Sport Package,328i,323ic,318ti Club Sport,318ti Club Sport,318ti Active,325is,525i,325is,325ix,535i,535i,528e,325is,635Csi,535i,633Csi,733i,735i,735i,735i,735i,,,,,Bavaria,Bavaria,Bavaria,2800CS,,,,
328d Sedan,328d Sedan,328d Sedan,320i Base Model,320i Sedan,128i Coupe Sprt Package,128i Coupe Sport Package,328i Sedan,328i Sedan,328i Sedan,328i Wagon Sport Package,330Ci Cabriolet,330Ci Cabriolet,330Ci Cabriolet,325xiT Wagon Sport Package,330Ci Cabriolet,325iT,323i Sport Wagon,328i Sport Package,323is,318ti Sport,318ti Sport,318ti Sport,525i,525i Touring,525i,525i,735i,635Csi,535i,525td,735i,635Csi,733i,735i,745i,745i,745i,,,,,,,,,3.0CS,,,,
328d xDrive Sedan,328d xDrive Sedan,328d xDrive Sedan,320i Sport Package,320i xDrive Sedan,135i Cabriolet Base Model,135i Cabriolet Base Model,328i Wagon,328i Wagon,328i Wagon,328xi Coupe Base Model,330Ci Coupe,330Ci Coupe,330Ci Coupe,330Ci Cabriolet,330Ci Coupe,325xi Sed Sport Pkg,323iT,328ic,328i,328i,328i,325i,525i Touring,535i,535i,535i,735iL,735i,635Csi,528e,745i,735i,735i,745i,,,,,,,,,,,,Bavaria,,,,
328d xDrive Wagon,328d xDrive Wagon,328d xDrive Wagon,320i Sport Package Staggered,328i Cabriolet,135i Cabriolet M Sport Package,135i Cabriolet M Sport Package,328i xDrive Coupe,328i xDrive Coupe,328xi Coupe,328xi Coupe Sport Package,330i Sedan,330i Sedan,330i Sedan,330Ci Coupe,330i Sedan,325xi Sedan,323ic,328is,328ic,328i Sport Pkg,328i Sport Pkg,325ic,530i,740i,735i,735i,750iL,735iL,735i,535i,L6,745i,745i,,,,,,,,,,,,,,,,,
330e iPerformance,328i Sedan,328i Sedan,320i xDrive Base Model,328i Coupe,135i Cabriolet Sport Package,135i Cabriolet Sport Package,328i xDrive Sedan,328i xDrive Sedan,328xi Sedan,328xi Sedan Base Model,330xi Sedan,330xi Sedan,330xi Sedan,330i Sedan,330xi Sedan,325xi Wagon,328Ci,528i,328is,328ic,328ic,325is,530i Touring,740iL,735iL,735iL,M3,750iL,735iL,635Csi,L7,M5,M6,,,,,,,,,,,,,,,,,
330i Sedan,328i xDrive Gran Turismo,328i xDrive Gran Turismo,320i xDrive Sport Package,328i Sedan,135i Coupe Base Model,135i Coupe Base Model,328i xDrive Wagon,328i xDrive Wagon,328xi Wagon,328xi Sedan Sport Package,525i Sedan Base Model,525i Sedan,330xi Sedan Sport Package,330xi Sedan,525i Sedan,325xi Wgn Sport Pkg,328Ci Sport Package,528i Sport Package,528i,328is,328is,525i,535i,750iL,750iL,750iL,M5,M3,750iL,735i,M5,M6,,,,,,,,,,,,,,,,,,
330i xDrive Gran Turismo,328i xDrive Sedan,328i xDrive Sedan,320i xDrive Staggered Tires,328i xDrive Coupe,135i Coupe M Sport Package,135i Coupe M Sport Package,335d Sedan,335d Sedan,335i Cabriolet,328xi Sedan Sprt Pkg Staggered,525i Sedan Sport Package,530i Sedan,525i Sedan,330xi Sedan Sport Package,525i Sport Wagon,330Ci,328i,528i Wagon,528i Touring,528i,740i,525i Touring,540i,850ci,850i,850i,,M5,L6,L6,M6,,,,,,,,,,,,,,,,,,,
330i xDrive Sedan,328i xDrive Wagon,328i xDrive Wagon,328d Base Model,328i xDrive Sedan,135i Coupe Sport Package,135i Coupe Sport Package,335i Cabriolet,335i Cabriolet,335i Coupe,328xi Wagon Base Model,525xi Sedan Base Model,545i Sedan,530i Sedan,525i Sedan,530i Sedan,330Ci Cabriolet,328i Sport Package,528i Wagon Sport Pkg,540i,540i,740iL,530i,730i,BMWCCA Spec E36,BMWCCA Spec E36,M3,,M6,M3,L7,,,,,,,,,,,,,,,,,,,,
330i xDrive Wagon,335i xDrive Gran Turismo,335i Sedan,328d Luxury Line,328i xDrive Wagon,328i Cabriolet,328i Cabriolet,335i Coupe,335i Coupe,335i Sedan,328xi Wagon Sport Package,525xi Sedan Sport Package,645Ci Cabrio,545i Sedan,525i Sport Wagon,540i 6-Speed Sedan,330Ci Cabriolet Sport Pkg,328ic,540i 6-Speed,540i 6-Speed,540i 6-Speed,750iL,530i Touring,740i,M5,M5,M5,,,M5,M3,,,,,,,,,,,,,,,,,,,,
340i Sedan,340i Sedan,335i xDrive Gran Turismo,328d M Sport,335i Cabriolet,328i Coupe,328i Coupe,335i Sedan,335i Sedan,335xi Coupe,328xi Wagon Sprt Pkg Staggered,530i Sedan Base Model,645Ci Coupe,645Ci Cabrio,530i Sedan,540iA Sedan Automatic,330Ci Sport Package,528i,540i Sport Wagon,540i Sport Automatic,740i,840ci,540i,740iL,,,,,,M6,M5,,,,,,,,,,,,,,,,,,,,
340i xDrive Gran Turismo,340i xDrive Sedan,335i xDrive Sedan,328d M Sport Brakes,335i Coupe,328i Sedan,328i Sedan,335i xDrive Coupe,335i xDrive Coupe,335xi Sedan,335i Cabriolet Base Model,530i Sedan Sport Package,745Li,645Ci Coupe,540i 6-Speed Sedan,540iT Sport Wagon,330i,528i Sport Package,540i Wagon Sport Pkg,740i,740iL,850ci,540i M-Sport,750iL,,,,,,,M6,,,,,,,,,,,,,,,,,,,,
340i xDrive Sedan,428i Convertible,428i Convertible,328d M Sport Staggered Tires,335i Sedan,328i Sports Wagon,328i Sports Wagon,335i xDrive Sedan,335i xDrive Sedan,528i Sedan,335i Cabriolet Sport Package,530xi Sedan Base Model,745i,745Li,540iA Sedan,745Li,330i Sport Package,528i Wagon,540iA,740iL,750iL,850csi,740i,840ci,,,,,,,,,,,,,,,,,,,,,,,,,,,
430i Convertible,428i Coupe,428i Coupe,328d Sport Line,335i xDrive Coupe,328i xDrive Coupe,328i xDrive Coupe,528i Sedan,528i Sedan,528xi Sedan,335i Coupe Base Model,530xi Sedan Sport Package,760Li,745i,540iT Sport Wagon,745i,330xi,528i Wagon Sport Pkg,540iA Sport Package,750iL,840ci,BMWCCA Spec E36,740iL,850ci,,,,,,,,,,,,,,,,,,,,,,,,,,,
430i Coupe,428i Gran Coupe,428i Gran Coupe,328d Wagon Base Model,335i xDrive Sedan,328i xDrive Sports Wagon,328i xDrive Sedan,528i xDrive Sedan,528i xDrive Sedan,535i Sedan,335i Coupe Sport Package,530xi Wagon,760i,760Li,745Li,M Coupe,525i,540i 6-Speed,740i,BMWCCA Spec E36,850ci,M3,750iL,850csi,,,,,,,,,,,,,,,,,,,,,,,,,,,
430i Gran Coupe,428i xDrive Convertible,428i xDrive Convertible,328d Wagon Luxury Line,335is Cabriolet,335i Cabriolet,328i xDrive Sports Wagon,535i Gran Turismo,535i Sedan,535xi Sedan,335i Sedan Base Model,550i Base Sedan,M3 Cabriolet,760i,745i,M Roadster,525i Sport Wagon,540i Sport Wagon,740i Sport Package,M Roadster,850csi,Z3 Roadster,840ci,BMWCCA Spec E36,,,,,,,,,,,,,,,,,,,,,,,,,,,
430i xDrive Convertible,428i xDrive Coupe,428i xDrive Coupe,328d Wagon M Sport,335is Coupe,335i Coupe,335d Sedan,535i Sedan,535i xDrive Sedan,535xi Wagon,335i Sedan Sport Package,550i Sport Package Sedan,M3 Coupe,M3 Cabriolet,760Li,M3 Cabriolet,530i,540iA Automatic,740iL,M3 Cabriolet,BMWCCA Spec E36,,850ci,,,,,,,,,,,,,,,,,,,,,,,,,,,,
430i xDrive Coupe,428i xDrive Gran Coupe,428i xDrive Gran Coupe,328d Wagon M Sport Brakes,528i Sedan,335i Sedan,335i Cabriolet,535i xDrive Sedan,535i xDrive Wagon,550i Sedan,335xi Sedan Base Model,650i Base Model Cabrio,M5,M3 Coupe,M3 Cabriolet,M3 Coupe,530i Sport Package,540iA Sport Package Automatic,750iL,M3 Coupe,M3 Coupe,,850csi,,,,,,,,,,,,,,,,,,,,,,,,,,,,
430i xDrive Gran Coupe,435i Convertible,435i Convertible,328d Wagon M Sport Staggered,528i xDrive Sedan,335i xDrive Coupe,335i Coupe,535i xDrive Wagon,550i Sedan,650i Cabrio,335xi Sedan Sport Package,650i Base Model Coupe,X3 2.5I,X3 2.5I,M3 Coupe,M5,540i 6-Speed,740i,M Coupe,M3 Sedan,M3 Sedan,,BMWCCA Spec E36,,,,,,,,,,,,,,,,,,,,,,,,,,,,
440i Convertible,435i Coupe,435i Coupe,328d Wagon Sport Line,535i Gran Turismo,335is Cabriolet,335i Sedan,550i Gran Turismo,650i Cabrio,650i Coupe,525i Sedan Base Model,650i Sport Package Cabrio,X3 3.0I,X3 3.0I,M5,X5 3.0i,540i 6-Speed Sport Package,740i Sport Package,M Roadster,Z3 Roadster 1.9,Z3 Roadster 1.9,,M3,,,,,,,,,,,,,,,,,,,,,,,,,,,,
440i Coupe,435i Gran Coupe,435i Gran Coupe,328d xDrive Base Model,535i Sedan,335is Coupe,335i xDrive Coupe,550i Sedan,650i Coupe,750Li,525i Sedan Sport Package,650i Sport Package Coupe,X5 3.0i,X5 3.0i,X5 3.0i,X5 4.4i,540i Sport Wagon,740iL,M3 Cabriolet,Z3 Roadster 2.8,Z3 Roadster 2.8,,M3 Lightweight,,,,,,,,,,,,,,,,,,,,,,,,,,,,
440i Gran Coupe,435i xDrive Convertible,435i xDrive Convertible,328d xDrive Luxury Line,535i xDrive Gran Turismo,528i Sedan,335i xDrive Sedan,650i Cabrio,750Li,750i,525xi Sedan,750Li,X5 4.4i,X5 4.4i,X5 4.4i,X5 4.6is,540iA Automatic,740iL Protection,M3 Coupe,,,,,,,,,,,,,,,,,,,,,,,,,,,,,,,,
440i xDrive Convertible,435i xDrive Coupe,435i xDrive Coupe,328d xDrive M Sport,535i xDrive Sedan,528i xDrive Sedan,335is Cabriolet,650i Coupe,750i,760Li,530i Sedan Base Model,750i,X5 4.8is,X5 4.8is,X5 4.6is,Z3 Coupe 3.0i,540iA Sport Package Automatic,740iL Sport Package,Z3 Coupe 2.8,,,,,,,,,,,,,,,,,,,,,,,,,,,,,,,,
440i xDrive Coupe,435i xDrive Gran Coupe,435i xDrive Gran Coupe,328d xDrive M Sport Brakes,550i Gran Turismo,535i Gran Turismo,335is Coupe,750Li,M3 Convertible,760i,530i Sedan Sport Package,760Li,Z4 2.5I,Z4 2.5I,Z4 2.5I,Z3 Roadster 2.5i,740i,750i Sport Package,Z3 Roadster 2.3,,,,,,,,,,,,,,,,,,,,,,,,,,,,,,,,
440i xDrive Gran Coupe,528i Sedan,528i Sedan,328d xDrive M Sport Staggered,550i Sedan,535i Sedan,528i Sedan Base Model,750Li xDrive,M3 Coupe,ALPINA B7,530xi Sedan Base Model,760i,Z4 3.0I,Z4 3.0I,Z4 3.0I,Z3 Roadster 3.0i,740i Sport Package,750iL,Z3 Roadster 2.8,,,,,,,,,,,,,,,,,,,,,,,,,,,,,,,,
530i Sedan,528i xDrive Sedan,528i xDrive Sedan,328d xDrive Sport Line,550i xDrive Gran Turismo,535i xDrive Sedan,528i Sedan M Sport Package,750i,M3 Sedan,M3 Convertible,530xi Sedan Sport Package,M3 Cabriolet,,,Z8 ALPINA Roadster V8,Z8,740iL,750iL Protection,,,,,,,,,,,,,,,,,,,,,,,,,,,,,,,,,
530i xDrive Sedan,535d Sedan,535d Sedan,328i Base Model,550i xDrive Sedan,550i Gran Turismo,528i Sedan Sport Package,750i xDrive,M5 Sedan,M3 Coupe,530xi Wagon Base Model,M3 Coupe,,,,,740iL Protection,M Coupe,,,,,,,,,,,,,,,,,,,,,,,,,,,,,,,,,
535i Gran Turismo,535d xDrive Sedan,535d xDrive Sedan,328i GT Base Model,640i Convertible,550i Sedan,535i Gran Turismo Base Model,760Li,M6 Cabriolet,M3 Sedan,550i Sedan Base Model,M3 Coupe Competition Package,,,,,740iL Sport Package,M Roadster,,,,,,,,,,,,,,,,,,,,,,,,,,,,,,,,,
535i xDrive Gran Turismo,535i Gran Turismo,535i Gran Turismo,328i GT Luxury Line,640i Coupe,550i xDrive Sedan,535i Gran Turismo Sport Pkg,ActiveHybrid X6,M6 Coupe,M5 Sedan,550i Sedan Sport Package,M5,,,,,750iL,M5,,,,,,,,,,,,,,,,,,,,,,,,,,,,,,,,,
540i Sedan,535i Sedan,535i Sedan,328i GT M Sport,640i Gran Coupe,640i Convertible,535i Sedan Base Model,M3 Convertible,X3 xDrive30i,M6 Cabriolet,650i Cabrio,M6,,,,,750iL Protection,X5 4.4i,,,,,,,,,,,,,,,,,,,,,,,,,,,,,,,,,
540i xDrive Sedan,535i xDrive Gran Turismo,535i xDrive Gran Turismo,328i GT M Sport Brakes,650i Convertible,640i Coupe,535i Sedan M Sport Package,M3 Coupe,X5 xDrive30i,M6 Coupe,650i Coupe,X3 3.0I Sport Package,,,,,M Coupe,Z3 Coupe 2.8,,,,,,,,,,,,,,,,,,,,,,,,,,,,,,,,,
550i xDrive Gran Turismo,535i xDrive Sedan,535i xDrive Sedan,328i GT M Sport Brakes Stagger,650i Coupe,650i Convertible,535i Sedan Sport Package,M3 Sedan,X5 xDrive35d,X3 3.0si,750Li,X3 3.0I Standard Model,,,,,M Roadster,Z3 Roadster 2.3,,,,,,,,,,,,,,,,,,,,,,,,,,,,,,,,,
640i Convertible,550i Sedan,550i Gran Turismo,328i GT M Sport Staggered,650i Gran Coupe,650i Coupe,535i xDrive Gran Turismo Base,M5 Sedan,X5 xDrive48i,X5 3.0si,750i,X5 3.0i,,,,,M3 Cabriolet,Z3 Roadster 2.8,,,,,,,,,,,,,,,,,,,,,,,,,,,,,,,,,
640i Coupe,550i xDrive Gran Turismo,550i Sedan,328i GT Sport Line,650i xDrive Convertible,650i xDrive Convertible,535i xDrive Gran Turismo Sport,M6 Cabriolet,X6 xDrive35i,X5 4.8i,760Li,X5 4.4i,,,,,M3 Coupe,Z8,,,,,,,,,,,,,,,,,,,,,,,,,,,,,,,,,
640i Gran Coupe,550i xDrive Sedan,550i xDrive Gran Turismo,328i Luxury Line,650i xDrive Coupe,650i xDrive Coupe,535i xDrive Sedan Base Model,M6 Coupe,X6 xDrive50i,X6,760i,X5 4.8is,,,,,M5,,,,,,,,,,,,,,,,,,,,,,,,,,,,,,,,,,
640i xDrive Convertible,640i Convertible,550i xDrive Sedan,328i M Sport,650i xDrive Gran Coupe,740Li,535i xDrive Sedan M Sport Pkg,X3 xDrive30i,Z4 sDrive30i,Z4 3.0i Roadster,ALPINA B7,Z4 3.0i Roadster,,,,,X5 3.0i,,,,,,,,,,,,,,,,,,,,,,,,,,,,,,,,,,
640i xDrive Coupe,640i Coupe,640i Convertible,328i M Sport Brakes,740Li,740i,535i xDrive Sedan Sport Pkg,X5 M,Z4 sDrive35i,Z4 3.0si Coupe,M5,Z4 3.0si Coupe,,,,,X5 4.4i,,,,,,,,,,,,,,,,,,,,,,,,,,,,,,,,,,
640i xDrive Gran Coupe,640i Gran Coupe,640i Coupe,328i M Sport Staggered Tires,740Li xDrive,750Li,550i Gran Turismo Base Model,X5 xDrive30i,,Z4 3.0si Roadster,M6 Cabriolet,Z4 3.0si Roadster,,,,,Z3 Coupe 3.0,,,,,,,,,,,,,,,,,,,,,,,,,,,,,,,,,,
740i Sedan,640i xDrive Convertible,640i Gran Coupe,328i Modern Line,740i,750Li xDrive,550i Gran Turismo Sport Pkg,X5 xDrive35d,,Z4 M Coupe,M6 Coupe,Z4 M Coupe,,,,,Z3 Roadster 2.5i,,,,,,,,,,,,,,,,,,,,,,,,,,,,,,,,,,
740i xDrive Sedan,640i xDrive Coupe,640i xDrive Convertible,328i Sport Line,750Li,750i,550i Sedan Base Model,X5 xDrive48i,,Z4 M Roadster,X3 3.0si,Z4 M Roadster,,,,,Z3 Roadster 3.0,,,,,,,,,,,,,,,,,,,,,,,,,,,,,,,,,,
750i Sedan,640i xDrive Gran Coupe,640i xDrive Coupe,328i Wagon Base Model,750Li xDrive,750i xDrive,550i Sedan M Sport Package,X6 M,,,X5 3.0si,,,,,,Z8,,,,,,,,,,,,,,,,,,,,,,,,,,,,,,,,,,
750i xDrive Sedan,650i Convertible,640i xDrive Gran Coupe,328i Wagon Luxury Line,750i,760Li,550i Sedan Sport Package,X6 xDrive35i,,,X5 4.8i,,,,,,,,,,,,,,,,,,,,,,,,,,,,,,,,,,,,,,,,
ALPINA B6 xDrive Gran Coupe,650i Coupe,650i Convertible,328i Wagon M Sport,750i xDrive,ALPINA B7,550i xDrive Gran Turismo Base,X6 xDrive50i,,,Z4 3.0i Roadster,,,,,,,,,,,,,,,,,,,,,,,,,,,,,,,,,,,,,,,,
ALPINA B7 xDrive,650i Gran Coupe,650i Coupe,328i Wagon M Sport Staggered,760Li,ALPINA B7 xDrive,550i xDrive Gran Turismo Sport,Z4 sDrive30i,,,Z4 3.0si Coupe,,,,,,,,,,,,,,,,,,,,,,,,,,,,,,,,,,,,,,,,
M2,650i xDrive Convertible,650i Gran Coupe,328i Wagon Modern Line,ALPINA B7,ActiveHybrid 5,550i xDrive Sedan Base Model,Z4 sDrive35i,,,Z4 3.0si Roadster,,,,,,,,,,,,,,,,,,,,,,,,,,,,,,,,,,,,,,,,
M240i Convertible,650i xDrive Coupe,650i xDrive Convertible,328i Wagon Sport Line,ALPINA B7 xDrive,ActiveHybrid 750Li,550i xDrive Sedan M Sport Pkg,,,,Z4 M Coupe,,,,,,,,,,,,,,,,,,,,,,,,,,,,,,,,,,,,,,,,
M240i Coupe,650i xDrive Gran Coupe,650i xDrive Coupe,328i xDrive Base Model,ActiveHybrid 3 Sedan,ActiveHybrid 750i,550i xDrive Sedan Sport Pkg,,,,Z4 M Roadster,,,,,,,,,,,,,,,,,,,,,,,,,,,,,,,,,,,,,,,,
M240i xDrive Convertible,740i Sedan,650i xDrive Gran Coupe,328i xDrive Luxury Line,ActiveHybrid 5,ActiveHybrid X6,740Li,,,,,,,,,,,,,,,,,,,,,,,,,,,,,,,,,,,,,,,,,,,,
M240i xDrive Coupe,740i xDrive Sedan,740Li,328i xDrive M Sport,ActiveHybrid 7,M3 Convertible,740i,,,,,,,,,,,,,,,,,,,,,,,,,,,,,,,,,,,,,,,,,,,,
M3 Sedan,750i Sedan,740Li xDrive,328i xDrive M Sport Brakes,M3 Convertible,M3 Coupe,750Li xDrive,,,,,,,,,,,,,,,,,,,,,,,,,,,,,,,,,,,,,,,,,,,,
M4 Convertible,750i xDrive Sedan,740i,328i xDrive M Sport Staggered,M3 Coupe,X1 xDrive28i,750Li xDrive Staggered Tires,,,,,,,,,,,,,,,,,,,,,,,,,,,,,,,,,,,,,,,,,,,,
M4 Coupe,ALPINA B6 xDrive Gran Coupe,750Li,328i xDrive Modern Line,M5,X3 xDrive28i,750i,,,,,,,,,,,,,,,,,,,,,,,,,,,,,,,,,,,,,,,,,,,,
M6 Convertible,ActiveHybrid 5,750Li xDrive,328i xDrive Sport Line,M6,X3 xDrive35i,750i xDrive,,,,,,,,,,,,,,,,,,,,,,,,,,,,,,,,,,,,,,,,,,,,
M6 Coupe,M2,750i,335i Base Model,X1 sDrive28i,X5 M,750i xDrive Staggered Tires,,,,,,,,,,,,,,,,,,,,,,,,,,,,,,,,,,,,,,,,,,,,
M6 Gran Coupe,M235i Convertible,750i xDrive,335i GT Base Model,X1 xDrive28i,X5 xDrive35d Base Model,760Li,,,,,,,,,,,,,,,,,,,,,,,,,,,,,,,,,,,,,,,,,,,,
M760i xDrive Sedan,M235i Coupe,760Li,335i GT Luxury Line,X1 xDrive35i,X5 xDrive35d Sport Activity,ALPINA B7,,,,,,,,,,,,,,,,,,,,,,,,,,,,,,,,,,,,,,,,,,,,
X1 sDrive28i,M235i xDrive Convertible,ALPINA B6 xDrive Gran Coupe,335i GT M Sport,X3 xDrive28i,X5 xDrive35i Base Model,ALPINA B7 xDrive,,,,,,,,,,,,,,,,,,,,,,,,,,,,,,,,,,,,,,,,,,,,
X1 xDrive28i,M235i xDrive Coupe,ALPINA B7,335i GT M Sport Brakes,X3 xDrive35i,X5 xDrive35i Premium,ActiveHybrid 750Li,,,,,,,,,,,,,,,,,,,,,,,,,,,,,,,,,,,,,,,,,,,,
X3 sDrive28i,M3 Sedan,ALPINA B7 xDrive,335i GT M Sport Brakes Stagger,X5 M,X5 xDrive35i Sport Activity,ActiveHybrid 750i,,,,,,,,,,,,,,,,,,,,,,,,,,,,,,,,,,,,,,,,,,,,
X3 xDrive28d,M4 Convertible,ActiveHybrid 5,335i GT M Sport Staggered,X5 xDrive35d,X5 xDrive50i Base Model,ActiveHybrid X6,,,,,,,,,,,,,,,,,,,,,,,,,,,,,,,,,,,,,,,,,,,,
X3 xDrive28i,M4 Coupe,ActiveHybrid 7,335i GT Sport Line,X5 xDrive35i,X5 xDrive50i M Sport Package,M3 Convertible,,,,,,,,,,,,,,,,,,,,,,,,,,,,,,,,,,,,,,,,,,,,
X3 xDrive35i,M4 GTS,Activehybrid 3 Sedan,335i Luxury Line,X5 xDrive50i,X5 xDrive50i Sport Activity,M3 Coupe,,,,,,,,,,,,,,,,,,,,,,,,,,,,,,,,,,,,,,,,,,,,
X4 M40i,M5 Sedan,M235i Convertible,335i M Sport,X6 M,X6 M,M3 Sedan,,,,,,,,,,,,,,,,,,,,,,,,,,,,,,,,,,,,,,,,,,,,
X4 xDrive28i,M6 Convertible,M235i Coupe,335i M Sport Brakes,X6 xDrive35i,X6 xDrive35i Base Model,X3 xDrive28i,,,,,,,,,,,,,,,,,,,,,,,,,,,,,,,,,,,,,,,,,,,,
X5 M,M6 Coupe,M235i xDrive Convertible,335i M Sport Staggered Tires,X6 xDrive50i,X6 xDrive35i Sport Activity,X3 xDrive35i,,,,,,,,,,,,,,,,,,,,,,,,,,,,,,,,,,,,,,,,,,,,
X5 sDrive35i,M6 Gran Coupe,M235i xDrive Coupe,335i Modern Line,Z4 sDrive28i Base Model,X6 xDrive35i Sport Package,X5 M,,,,,,,,,,,,,,,,,,,,,,,,,,,,,,,,,,,,,,,,,,,,
X5 xDrive35i,X1 xDrive28i,M3 Sedan,335i Sport Line,Z4 sDrive30i Base Model,X6 xDrive50i Base Model,X5 xDrive35d Base Model,,,,,,,,,,,,,,,,,,,,,,,,,,,,,,,,,,,,,,,,,,,,
X5 xDrive40e,X3 sDrive28i,M4 Convertible,335i xDrive Base Model,Z4 sDrive30i M Sport Package,X6 xDrive50i Sport Activity,X5 xDrive35d Sport Activity,,,,,,,,,,,,,,,,,,,,,,,,,,,,,,,,,,,,,,,,,,,,
X5 xDrive50i,X3 xDrive28d,M4 Coupe,335i xDrive Luxury Line,Z4 sDrive30i Sport Package,X6 xDrive50i Sport Package,X5 xDrive35i Base Model,,,,,,,,,,,,,,,,,,,,,,,,,,,,,,,,,,,,,,,,,,,,
X6 M,X3 xDrive28i,M5 Sedan,335i xDrive M Sport,Z4 sDrive35i Base Model,Z4 sDrive28i Base Model,X5 xDrive35i Premium,,,,,,,,,,,,,,,,,,,,,,,,,,,,,,,,,,,,,,,,,,,,
X6 sDrive35i,X3 xDrive35i,M6 Convertible,335i xDrive M Sport Brakes,Z4 sDrive35i M Sport Package,Z4 sDrive30i Base Model,X5 xDrive35i Sport Activity,,,,,,,,,,,,,,,,,,,,,,,,,,,,,,,,,,,,,,,,,,,,
X6 xDrive35i,X4 M40i,M6 Coupe,335i xDrive M Sport Staggered,Z4 sDrive35i Sport Package,Z4 sDrive30i M Sport Package,X5 xDrive50i Base Model,,,,,,,,,,,,,,,,,,,,,,,,,,,,,,,,,,,,,,,,,,,,
X6 xDrive50i,X4 xDrive28i,M6 Gran Coupe,335i xDrive Modern Line,Z4 sDrive35iS,Z4 sDrive30i Sport Package,X5 xDrive50i M Sport Package,,,,,,,,,,,,,,,,,,,,,,,,,,,,,,,,,,,,,,,,,,,,
i3,X4 xDrive35i,X1 sDrive28i,335i xDrive Sport Line,,Z4 sDrive35i Base Model,X5 xDrive50i Sport Activity,,,,,,,,,,,,,,,,,,,,,,,,,,,,,,,,,,,,,,,,,,,,
i3 (60 ah),X5 M,X1 xDrive28i,428i Convertible Base Model,,Z4 sDrive35i M Sport Package,X6 M,,,,,,,,,,,,,,,,,,,,,,,,,,,,,,,,,,,,,,,,,,,,
i3 with Range Extender,X5 sDrive35i,X1 xDrive35i,428i Convertible Luxury Line,,Z4 sDrive35i Sport Package,X6 xDrive35i Base Model,,,,,,,,,,,,,,,,,,,,,,,,,,,,,,,,,,,,,,,,,,,,
i8,X5 xDrive35d,X3 sDrive28i,428i Convertible M Sport Brake,,Z4 sDrive35iS,X6 xDrive35i Sport Activity,,,,,,,,,,,,,,,,,,,,,,,,,,,,,,,,,,,,,,,,,,,,
,X5 xDrive35i,X3 xDrive28d,428i Convertible M Sport Line,,,X6 xDrive35i Sport Package,,,,,,,,,,,,,,,,,,,,,,,,,,,,,,,,,,,,,,,,,,,,
,X5 xDrive40e,X3 xDrive28i,428i Convertible Sport Line,,,X6 xDrive50i Base,,,,,,,,,,,,,,,,,,,,,,,,,,,,,,,,,,,,,,,,,,,,
,X5 xDrive50i,X3 xDrive35i,428i Coupe Base Model,,,X6 xDrive50i Sport Activity,,,,,,,,,,,,,,,,,,,,,,,,,,,,,,,,,,,,,,,,,,,,
,X6 M,X4 xDrive28i,428i Coupe Luxury Line,,,X6 xDrive50i Sport Package,,,,,,,,,,,,,,,,,,,,,,,,,,,,,,,,,,,,,,,,,,,,
,X6 sDrive35i,X4 xDrive35i,428i Coupe M Sport Brakes,,,Z4 sDrive30i Base Model,,,,,,,,,,,,,,,,,,,,,,,,,,,,,,,,,,,,,,,,,,,,
,X6 xDrive35i,X5 M,428i Coupe M Sport Line,,,Z4 sDrive30i M Sport Package,,,,,,,,,,,,,,,,,,,,,,,,,,,,,,,,,,,,,,,,,,,,
,X6 xDrive50i,X5 sDrive35i,428i Coupe M Sport Staggered,,,Z4 sDrive30i Sport Package,,,,,,,,,,,,,,,,,,,,,,,,,,,,,,,,,,,,,,,,,,,,
,Z4 sDrive28i,X5 xDrive35d,428i Coupe Sport Line,,,Z4 sDrive35i Base Model,,,,,,,,,,,,,,,,,,,,,,,,,,,,,,,,,,,,,,,,,,,,
,Z4 sDrive35i,X5 xDrive35i,428i xDrive Convert Base Model,,,Z4 sDrive35i M Sport Package,,,,,,,,,,,,,,,,,,,,,,,,,,,,,,,,,,,,,,,,,,,,
,Z4 sDrive35is,X5 xDrive50i,428i xDrive Convert Luxury,,,Z4 sDrive35i Sport Package,,,,,,,,,,,,,,,,,,,,,,,,,,,,,,,,,,,,,,,,,,,,
,i3,X6 M,428i xDrive Convert M Brake,,,Z4 sDrive35iS,,,,,,,,,,,,,,,,,,,,,,,,,,,,,,,,,,,,,,,,,,,,
,i3 with Range Extender,X6 sDrive35i,428i xDrive Convert M Brakes,,,,,,,,,,,,,,,,,,,,,,,,,,,,,,,,,,,,,,,,,,,,,,,
,i8,X6 xDrive35i,428i xDrive Convert M Sport,,,,,,,,,,,,,,,,,,,,,,,,,,,,,,,,,,,,,,,,,,,,,,,
,,X6 xDrive50i,428i xDrive Convert Sport Line,,,,,,,,,,,,,,,,,,,,,,,,,,,,,,,,,,,,,,,,,,,,,,,
,,Z4 sDrive28i,428i xDrive Coupe Base Model,,,,,,,,,,,,,,,,,,,,,,,,,,,,,,,,,,,,,,,,,,,,,,,
,,Z4 sDrive35i,428i xDrive Coupe M Sport Line,,,,,,,,,,,,,,,,,,,,,,,,,,,,,,,,,,,,,,,,,,,,,,,
,,Z4 sDrive35is,428i xDrive Coupe M Sprt Brake,,,,,,,,,,,,,,,,,,,,,,,,,,,,,,,,,,,,,,,,,,,,,,,
,,i3,435i Convertible Base Model,,,,,,,,,,,,,,,,,,,,,,,,,,,,,,,,,,,,,,,,,,,,,,,
,,i3 with Range Extender,435i Convertible M Sport Brake,,,,,,,,,,,,,,,,,,,,,,,,,,,,,,,,,,,,,,,,,,,,,,,
,,i8,435i Convertible M Sport Line,,,,,,,,,,,,,,,,,,,,,,,,,,,,,,,,,,,,,,,,,,,,,,,
,,,435i Convertible Sport Line,,,,,,,,,,,,,,,,,,,,,,,,,,,,,,,,,,,,,,,,,,,,,,,
,,,435i Coupe Base Model,,,,,,,,,,,,,,,,,,,,,,,,,,,,,,,,,,,,,,,,,,,,,,,
,,,435i Coupe Luxury Line,,,,,,,,,,,,,,,,,,,,,,,,,,,,,,,,,,,,,,,,,,,,,,,
,,,435i Coupe M Sport Brakes,,,,,,,,,,,,,,,,,,,,,,,,,,,,,,,,,,,,,,,,,,,,,,,
,,,435i Coupe M Sport Line,,,,,,,,,,,,,,,,,,,,,,,,,,,,,,,,,,,,,,,,,,,,,,,
,,,435i Coupe M Sport Staggered,,,,,,,,,,,,,,,,,,,,,,,,,,,,,,,,,,,,,,,,,,,,,,,
,,,435i Coupe Sport Line,,,,,,,,,,,,,,,,,,,,,,,,,,,,,,,,,,,,,,,,,,,,,,,
,,,435i xDrive Convert Base Model,,,,,,,,,,,,,,,,,,,,,,,,,,,,,,,,,,,,,,,,,,,,,,,
,,,435i xDrive Coupe Base Model,,,,,,,,,,,,,,,,,,,,,,,,,,,,,,,,,,,,,,,,,,,,,,,
,,,435i xDrive Coupe M Sprt Brake,,,,,,,,,,,,,,,,,,,,,,,,,,,,,,,,,,,,,,,,,,,,,,,
,,,528i Base Model,,,,,,,,,,,,,,,,,,,,,,,,,,,,,,,,,,,,,,,,,,,,,,,
,,,528i Luxury Line,,,,,,,,,,,,,,,,,,,,,,,,,,,,,,,,,,,,,,,,,,,,,,,
,,,528i M Sport,,,,,,,,,,,,,,,,,,,,,,,,,,,,,,,,,,,,,,,,,,,,,,,
,,,528i M Sport Staggered Tires,,,,,,,,,,,,,,,,,,,,,,,,,,,,,,,,,,,,,,,,,,,,,,,
,,,528i Modern Line,,,,,,,,,,,,,,,,,,,,,,,,,,,,,,,,,,,,,,,,,,,,,,,
,,,528i xDrive Base Model,,,,,,,,,,,,,,,,,,,,,,,,,,,,,,,,,,,,,,,,,,,,,,,
,,,528i xDrive Luxury Line,,,,,,,,,,,,,,,,,,,,,,,,,,,,,,,,,,,,,,,,,,,,,,,
,,,528i xDrive M Sport,,,,,,,,,,,,,,,,,,,,,,,,,,,,,,,,,,,,,,,,,,,,,,,
,,,528i xDrive M Sport Staggered,,,,,,,,,,,,,,,,,,,,,,,,,,,,,,,,,,,,,,,,,,,,,,,
,,,528i xDrive Modern Line,,,,,,,,,,,,,,,,,,,,,,,,,,,,,,,,,,,,,,,,,,,,,,,
,,,535d Base Model,,,,,,,,,,,,,,,,,,,,,,,,,,,,,,,,,,,,,,,,,,,,,,,
,,,535d Luxury Line,,,,,,,,,,,,,,,,,,,,,,,,,,,,,,,,,,,,,,,,,,,,,,,
,,,535d M Sport,,,,,,,,,,,,,,,,,,,,,,,,,,,,,,,,,,,,,,,,,,,,,,,
,,,535d M Sport Staggered Tires,,,,,,,,,,,,,,,,,,,,,,,,,,,,,,,,,,,,,,,,,,,,,,,
,,,535d Modern Line,,,,,,,,,,,,,,,,,,,,,,,,,,,,,,,,,,,,,,,,,,,,,,,
,,,535d xDrive Base Model,,,,,,,,,,,,,,,,,,,,,,,,,,,,,,,,,,,,,,,,,,,,,,,
,,,535d xDrive Luxury Line,,,,,,,,,,,,,,,,,,,,,,,,,,,,,,,,,,,,,,,,,,,,,,,
,,,535d xDrive M Sport,,,,,,,,,,,,,,,,,,,,,,,,,,,,,,,,,,,,,,,,,,,,,,,
,,,535d xDrive M Sport Staggered,,,,,,,,,,,,,,,,,,,,,,,,,,,,,,,,,,,,,,,,,,,,,,,
,,,535d xDrive Modern Line,,,,,,,,,,,,,,,,,,,,,,,,,,,,,,,,,,,,,,,,,,,,,,,
,,,535i Base Model,,,,,,,,,,,,,,,,,,,,,,,,,,,,,,,,,,,,,,,,,,,,,,,
,,,535i GT Base Model,,,,,,,,,,,,,,,,,,,,,,,,,,,,,,,,,,,,,,,,,,,,,,,
,,,535i GT Luxury Line,,,,,,,,,,,,,,,,,,,,,,,,,,,,,,,,,,,,,,,,,,,,,,,
,,,535i GT M Sport,,,,,,,,,,,,,,,,,,,,,,,,,,,,,,,,,,,,,,,,,,,,,,,
,,,535i GT M Sport Staggered,,,,,,,,,,,,,,,,,,,,,,,,,,,,,,,,,,,,,,,,,,,,,,,
,,,535i GT Modern Line,,,,,,,,,,,,,,,,,,,,,,,,,,,,,,,,,,,,,,,,,,,,,,,
,,,535i Luxury Line,,,,,,,,,,,,,,,,,,,,,,,,,,,,,,,,,,,,,,,,,,,,,,,
,,,535i M Sport,,,,,,,,,,,,,,,,,,,,,,,,,,,,,,,,,,,,,,,,,,,,,,,
,,,535i M Sport Staggered Tires,,,,,,,,,,,,,,,,,,,,,,,,,,,,,,,,,,,,,,,,,,,,,,,
,,,535i Modern Line,,,,,,,,,,,,,,,,,,,,,,,,,,,,,,,,,,,,,,,,,,,,,,,
,,,535i xDrive Base Model,,,,,,,,,,,,,,,,,,,,,,,,,,,,,,,,,,,,,,,,,,,,,,,
,,,535i xDrive GT Base Model,,,,,,,,,,,,,,,,,,,,,,,,,,,,,,,,,,,,,,,,,,,,,,,
,,,535i xDrive GT Luxury Line,,,,,,,,,,,,,,,,,,,,,,,,,,,,,,,,,,,,,,,,,,,,,,,
,,,535i xDrive GT M Sport,,,,,,,,,,,,,,,,,,,,,,,,,,,,,,,,,,,,,,,,,,,,,,,
,,,535i xDrive GT M Sport Stagger,,,,,,,,,,,,,,,,,,,,,,,,,,,,,,,,,,,,,,,,,,,,,,,
,,,535i xDrive GT Modern Line,,,,,,,,,,,,,,,,,,,,,,,,,,,,,,,,,,,,,,,,,,,,,,,
,,,535i xDrive Luxury Line,,,,,,,,,,,,,,,,,,,,,,,,,,,,,,,,,,,,,,,,,,,,,,,
,,,535i xDrive M Sport,,,,,,,,,,,,,,,,,,,,,,,,,,,,,,,,,,,,,,,,,,,,,,,
,,,535i xDrive M Sport Staggered,,,,,,,,,,,,,,,,,,,,,,,,,,,,,,,,,,,,,,,,,,,,,,,
,,,535i xDrive Modern Line,,,,,,,,,,,,,,,,,,,,,,,,,,,,,,,,,,,,,,,,,,,,,,,
,,,550i Base Model,,,,,,,,,,,,,,,,,,,,,,,,,,,,,,,,,,,,,,,,,,,,,,,
,,,550i GT Base Model,,,,,,,,,,,,,,,,,,,,,,,,,,,,,,,,,,,,,,,,,,,,,,,
,,,550i GT Luxury Line,,,,,,,,,,,,,,,,,,,,,,,,,,,,,,,,,,,,,,,,,,,,,,,
,,,550i GT M Sport,,,,,,,,,,,,,,,,,,,,,,,,,,,,,,,,,,,,,,,,,,,,,,,
,,,550i GT M Sport Staggered,,,,,,,,,,,,,,,,,,,,,,,,,,,,,,,,,,,,,,,,,,,,,,,
,,,550i GT Modern Line,,,,,,,,,,,,,,,,,,,,,,,,,,,,,,,,,,,,,,,,,,,,,,,
,,,550i Luxury Line,,,,,,,,,,,,,,,,,,,,,,,,,,,,,,,,,,,,,,,,,,,,,,,
,,,550i M Sport,,,,,,,,,,,,,,,,,,,,,,,,,,,,,,,,,,,,,,,,,,,,,,,
,,,550i M Sport Staggered Tires,,,,,,,,,,,,,,,,,,,,,,,,,,,,,,,,,,,,,,,,,,,,,,,
,,,550i Modern Line,,,,,,,,,,,,,,,,,,,,,,,,,,,,,,,,,,,,,,,,,,,,,,,
,,,550i xDrive Base Model,,,,,,,,,,,,,,,,,,,,,,,,,,,,,,,,,,,,,,,,,,,,,,,
,,,550i xDrive GT Base Model,,,,,,,,,,,,,,,,,,,,,,,,,,,,,,,,,,,,,,,,,,,,,,,
,,,550i xDrive GT Luxury Line,,,,,,,,,,,,,,,,,,,,,,,,,,,,,,,,,,,,,,,,,,,,,,,
,,,550i xDrive GT M Sport,,,,,,,,,,,,,,,,,,,,,,,,,,,,,,,,,,,,,,,,,,,,,,,
,,,550i xDrive GT M Sport Stagger,,,,,,,,,,,,,,,,,,,,,,,,,,,,,,,,,,,,,,,,,,,,,,,
,,,550i xDrive GT Modern Line,,,,,,,,,,,,,,,,,,,,,,,,,,,,,,,,,,,,,,,,,,,,,,,
,,,550i xDrive Luxury Line,,,,,,,,,,,,,,,,,,,,,,,,,,,,,,,,,,,,,,,,,,,,,,,
,,,550i xDrive M Sport,,,,,,,,,,,,,,,,,,,,,,,,,,,,,,,,,,,,,,,,,,,,,,,
,,,550i xDrive M Sport Staggered,,,,,,,,,,,,,,,,,,,,,,,,,,,,,,,,,,,,,,,,,,,,,,,
,,,550i xDrive Modern Line,,,,,,,,,,,,,,,,,,,,,,,,,,,,,,,,,,,,,,,,,,,,,,,
,,,640i Coupe,,,,,,,,,,,,,,,,,,,,,,,,,,,,,,,,,,,,,,,,,,,,,,,
,,,640i Coupe Staggered Tires,,,,,,,,,,,,,,,,,,,,,,,,,,,,,,,,,,,,,,,,,,,,,,,
,,,640i Gran Coupe,,,,,,,,,,,,,,,,,,,,,,,,,,,,,,,,,,,,,,,,,,,,,,,
,,,640i Gran Coupe Staggered Tire,,,,,,,,,,,,,,,,,,,,,,,,,,,,,,,,,,,,,,,,,,,,,,,
,,,640i xDrive Convert Staggered,,,,,,,,,,,,,,,,,,,,,,,,,,,,,,,,,,,,,,,,,,,,,,,
,,,640i xDrive Convertible,,,,,,,,,,,,,,,,,,,,,,,,,,,,,,,,,,,,,,,,,,,,,,,
,,,640i xDrive Coupe,,,,,,,,,,,,,,,,,,,,,,,,,,,,,,,,,,,,,,,,,,,,,,,
,,,640i xDrive Coupe Staggered,,,,,,,,,,,,,,,,,,,,,,,,,,,,,,,,,,,,,,,,,,,,,,,
,,,640i xDrive Gran Coupe,,,,,,,,,,,,,,,,,,,,,,,,,,,,,,,,,,,,,,,,,,,,,,,
,,,640i xDrive Gran Coupe Stagger,,,,,,,,,,,,,,,,,,,,,,,,,,,,,,,,,,,,,,,,,,,,,,,
,,,650i Convertible,,,,,,,,,,,,,,,,,,,,,,,,,,,,,,,,,,,,,,,,,,,,,,,
,,,650i Convertible Staggered,,,,,,,,,,,,,,,,,,,,,,,,,,,,,,,,,,,,,,,,,,,,,,,
,,,650i Coupe,,,,,,,,,,,,,,,,,,,,,,,,,,,,,,,,,,,,,,,,,,,,,,,
,,,650i Coupe Staggered Tires,,,,,,,,,,,,,,,,,,,,,,,,,,,,,,,,,,,,,,,,,,,,,,,
,,,650i Gran Coupe,,,,,,,,,,,,,,,,,,,,,,,,,,,,,,,,,,,,,,,,,,,,,,,
,,,650i Gran Coupe Staggered Tire,,,,,,,,,,,,,,,,,,,,,,,,,,,,,,,,,,,,,,,,,,,,,,,
,,,650i xDrive Convert,,,,,,,,,,,,,,,,,,,,,,,,,,,,,,,,,,,,,,,,,,,,,,,
,,,650i xDrive Convert Staggered,,,,,,,,,,,,,,,,,,,,,,,,,,,,,,,,,,,,,,,,,,,,,,,
,,,650i xDrive Coupe,,,,,,,,,,,,,,,,,,,,,,,,,,,,,,,,,,,,,,,,,,,,,,,
,,,650i xDrive Coupe Staggered,,,,,,,,,,,,,,,,,,,,,,,,,,,,,,,,,,,,,,,,,,,,,,,
,,,650i xDrive Gran Coupe,,,,,,,,,,,,,,,,,,,,,,,,,,,,,,,,,,,,,,,,,,,,,,,
,,,650i xDrive Gran Coupe Stagger,,,,,,,,,,,,,,,,,,,,,,,,,,,,,,,,,,,,,,,,,,,,,,,
,,,740Li,,,,,,,,,,,,,,,,,,,,,,,,,,,,,,,,,,,,,,,,,,,,,,,
,,,740Li xDrive,,,,,,,,,,,,,,,,,,,,,,,,,,,,,,,,,,,,,,,,,,,,,,,
,,,740i,,,,,,,,,,,,,,,,,,,,,,,,,,,,,,,,,,,,,,,,,,,,,,,
,,,740li,,,,,,,,,,,,,,,,,,,,,,,,,,,,,,,,,,,,,,,,,,,,,,,
,,,740li xDrive,,,,,,,,,,,,,,,,,,,,,,,,,,,,,,,,,,,,,,,,,,,,,,,
,,,750Li,,,,,,,,,,,,,,,,,,,,,,,,,,,,,,,,,,,,,,,,,,,,,,,
,,,750Li Staggered Tires,,,,,,,,,,,,,,,,,,,,,,,,,,,,,,,,,,,,,,,,,,,,,,,
,,,750Li xDrive,,,,,,,,,,,,,,,,,,,,,,,,,,,,,,,,,,,,,,,,,,,,,,,
,,,750Li xDrive Staggered Tires,,,,,,,,,,,,,,,,,,,,,,,,,,,,,,,,,,,,,,,,,,,,,,,
,,,750i,,,,,,,,,,,,,,,,,,,,,,,,,,,,,,,,,,,,,,,,,,,,,,,
,,,750i Staggered Tires,,,,,,,,,,,,,,,,,,,,,,,,,,,,,,,,,,,,,,,,,,,,,,,
,,,750i xDrive,,,,,,,,,,,,,,,,,,,,,,,,,,,,,,,,,,,,,,,,,,,,,,,
,,,750i xDrive Staggered Tires,,,,,,,,,,,,,,,,,,,,,,,,,,,,,,,,,,,,,,,,,,,,,,,
,,,760Li,,,,,,,,,,,,,,,,,,,,,,,,,,,,,,,,,,,,,,,,,,,,,,,
,,,760li,,,,,,,,,,,,,,,,,,,,,,,,,,,,,,,,,,,,,,,,,,,,,,,
,,,ALPINA B7,,,,,,,,,,,,,,,,,,,,,,,,,,,,,,,,,,,,,,,,,,,,,,,
,,,ALPINA B7 xDrive,,,,,,,,,,,,,,,,,,,,,,,,,,,,,,,,,,,,,,,,,,,,,,,
,,,ActiveHybrid 3 Base Model,,,,,,,,,,,,,,,,,,,,,,,,,,,,,,,,,,,,,,,,,,,,,,,
,,,ActiveHybrid 3 Luxury Line,,,,,,,,,,,,,,,,,,,,,,,,,,,,,,,,,,,,,,,,,,,,,,,
,,,ActiveHybrid 3 M Sport,,,,,,,,,,,,,,,,,,,,,,,,,,,,,,,,,,,,,,,,,,,,,,,
,,,ActiveHybrid 3 M Sport Brakes,,,,,,,,,,,,,,,,,,,,,,,,,,,,,,,,,,,,,,,,,,,,,,,
,,,ActiveHybrid 3 M Sport Stagger,,,,,,,,,,,,,,,,,,,,,,,,,,,,,,,,,,,,,,,,,,,,,,,
,,,ActiveHybrid 3 Modern Line,,,,,,,,,,,,,,,,,,,,,,,,,,,,,,,,,,,,,,,,,,,,,,,
,,,ActiveHybrid 3 Sport Line,,,,,,,,,,,,,,,,,,,,,,,,,,,,,,,,,,,,,,,,,,,,,,,
,,,ActiveHybrid 5 Base Model,,,,,,,,,,,,,,,,,,,,,,,,,,,,,,,,,,,,,,,,,,,,,,,
,,,ActiveHybrid 5 Luxury Line,,,,,,,,,,,,,,,,,,,,,,,,,,,,,,,,,,,,,,,,,,,,,,,
,,,ActiveHybrid 5 M Sport,,,,,,,,,,,,,,,,,,,,,,,,,,,,,,,,,,,,,,,,,,,,,,,
,,,ActiveHybrid 5 Modern Line,,,,,,,,,,,,,,,,,,,,,,,,,,,,,,,,,,,,,,,,,,,,,,,
,,,ActiveHybrid 7,,,,,,,,,,,,,,,,,,,,,,,,,,,,,,,,,,,,,,,,,,,,,,,
,,,M235i,,,,,,,,,,,,,,,,,,,,,,,,,,,,,,,,,,,,,,,,,,,,,,,
,,,M235i with Staggered Tires,,,,,,,,,,,,,,,,,,,,,,,,,,,,,,,,,,,,,,,,,,,,,,,
,,,M5,,,,,,,,,,,,,,,,,,,,,,,,,,,,,,,,,,,,,,,,,,,,,,,
,,,M6 Convertible,,,,,,,,,,,,,,,,,,,,,,,,,,,,,,,,,,,,,,,,,,,,,,,
,,,M6 Coupe,,,,,,,,,,,,,,,,,,,,,,,,,,,,,,,,,,,,,,,,,,,,,,,
,,,M6 Gran Coupe,,,,,,,,,,,,,,,,,,,,,,,,,,,,,,,,,,,,,,,,,,,,,,,
,,,X1 sDrive28i,,,,,,,,,,,,,,,,,,,,,,,,,,,,,,,,,,,,,,,,,,,,,,,
,,,X1 xDrive28i,,,,,,,,,,,,,,,,,,,,,,,,,,,,,,,,,,,,,,,,,,,,,,,
,,,X1 xDrive35i,,,,,,,,,,,,,,,,,,,,,,,,,,,,,,,,,,,,,,,,,,,,,,,
,,,X3 xDrive28i,,,,,,,,,,,,,,,,,,,,,,,,,,,,,,,,,,,,,,,,,,,,,,,
,,,X3 xDrive35i,,,,,,,,,,,,,,,,,,,,,,,,,,,,,,,,,,,,,,,,,,,,,,,
,,,X5 sDrive35i,,,,,,,,,,,,,,,,,,,,,,,,,,,,,,,,,,,,,,,,,,,,,,,
,,,X5 xDrive35d,,,,,,,,,,,,,,,,,,,,,,,,,,,,,,,,,,,,,,,,,,,,,,,
,,,X5 xDrive35i,,,,,,,,,,,,,,,,,,,,,,,,,,,,,,,,,,,,,,,,,,,,,,,
,,,X5 xDrive50i,,,,,,,,,,,,,,,,,,,,,,,,,,,,,,,,,,,,,,,,,,,,,,,
,,,X6 M,,,,,,,,,,,,,,,,,,,,,,,,,,,,,,,,,,,,,,,,,,,,,,,
,,,X6 xDrive35i,,,,,,,,,,,,,,,,,,,,,,,,,,,,,,,,,,,,,,,,,,,,,,,
,,,X6 xDrive50i,,,,,,,,,,,,,,,,,,,,,,,,,,,,,,,,,,,,,,,,,,,,,,,
,,,Z4 sDrive28i,,,,,,,,,,,,,,,,,,,,,,,,,,,,,,,,,,,,,,,,,,,,,,,
,,,Z4 sDrive35i,,,,,,,,,,,,,,,,,,,,,,,,,,,,,,,,,,,,,,,,,,,,,,,
,,,Z4 sDrive35is,,,,,,,,,,,,,,,,,,,,,,,,,,,,,,,,,,,,,,,,,,,,,,,
,,,i3,,,,,,,,,,,,,,,,,,,,,,,,,,,,,,,,,,,,,,,,,,,,,,,
,,,i3 with Range Extender,,,,,,,,,,,,,,,,,,,,,,,,,,,,,,,,,,,,,,,,,,,,,,,
,,,i8,,,,,,,,,,,,,,,,,,,,,,,,,,,,,,,,,,,,,,,,,,,,,,,
